force_calls 3341488.0
force_calls_mean_error 1631366.42158
unique_saddles 108.0
fraction_connected 0.745814111111
total_searches 9666.11111111
code Eon
code_version r2213
date 13 Jun 2014
contributor Andreas Pedersen
code eon_r2213_lbfgs.tgz