mean_epoch 2157.14
median_epoch 1560.0
mean_energy_rmse 0.008125548399999998
median_energy_rmse 0.007033215
mean_force_rmse -1.0
median_force_rmse -1.0
nfailed 0 
code Pyamff
code_version 8037eb98
date 13 Dec 2022
contributor Henkelman Group
code_file pyamff-8037eb98.tgz
